…
    ngrps

> library(latex2exp)
> + + + + + + + > input_dir <- file.path("input")
> output_dir <- file.path("output")
> load(file.path(input_dir, "data.processing_2022-12-15.Rda"),
+      verbose = TRUE)
Loading objects:
  motif_data
  motif_data_40C
  motif_stats
  motif_stats_40C
  bird_bill_data
> motif_data
# A tibble: 146 × 28
   male  round trial_round motif…¹ motif…² temp_…³ humid…⁴ chamber date  counter
   <fct> <dbl>       <dbl>   <int>   <dbl>   <dbl>   <dbl> <fct>   <chr> <chr>  
 1 T229      1           1       0 0          45.8      NA 6       02/1… KIM    
 2 T229      1           2      24 0.0131     42.3      NA 6       02/1… KIM    
 3 T229      1           3     114 0.0622     40.7      NA 6       02/1… KIM    
 4 T229      1           4     198 0.108      26.2      NA 6       02/1… KIM    
 5 T229      1           5     315 0.172      34.9      NA 6       02/2… KIM    
 6 T231      1           1      57 0.0431     42.8      NA 2       02/1… RAS    
 7 T231      1           2       7 0.00529    45.0      NA 2       02/1… RAS    
 8 T231      1           3      86 0.0650     41.1      NA 2       02/1… KIM    
 9 T231      1           4      24 0.0181     27.2      NA 2       02/1… RAS    
10 T231      1           5     215 0.162      36.5      NA 2       02/2… RAS    
# … with 136 more rows, 18 more variables: test_order <int>, temp_target <dbl>,
#   temp_median <dbl>, humdity_mean <dbl>, motif_rate <dbl>, mass <dbl>,
#   n_obs_completed <lgl>, motif_count_plus_1 <int>,
#   log_motif_count_plus_1 <dbl>, temp <dbl>, n_obs_round <int>, n_obs <int>,
#   trial <int>, motif_prop_round <dbl>, weights <dbl>, svp <dbl>, vpd <dbl>,
#   vpd_offset <dbl>, and abbreviated variable names ¹​motif_count, ²​motif_prop,
#   ³​temp_mean, ⁴​humidity_mean
# ℹ Use `print(n = ...)` to see more rows, and `colnames()` to see all variable names
…
+   prior(uniform(30, 45.5), lb = 30, ub = 45.5, nlpar = "x0")
> ## Run Analysis
> for(x_flag in flags_x) {
+     for(y_flag in flags_y) {
+ 
+         ## Set up variables for saving model and fit
+         desc <- paste0(model, ": ", x_flag, ", ", y_flag)
+         curr_row <- which(#fit_tbl$model == model &
+                           fit_tbl$x0_flag == x_fla .... [TRUNCATED] 
[1] "brms: uniform_1, individual"
Error in h(simpleError(msg, call)) : 
  error in evaluating the argument 'x' in selecting a method for function 'print': The following variables can neither be found in 'data' nor in 'data2':
'y', 'x'
> data_ind
# A tibble: 38 × 11
   male  index motif…¹ temp_…²  temp round trial…³ date  counter y0_si…⁴ phi_ind
   <chr> <int>   <int>   <dbl> <dbl> <dbl>   <dbl> <chr> <chr>     <dbl>   <dbl>
 1 T234      1      34      27  27.2     1       3 02/0… RAS        51.8    6.11
 2 T234      1      52      35  36.1     1       5 02/1… RAS        51.8    6.11
 3 T234      1      76      35  34.8     3       2 06/2… KIM        51.8    6.11
 4 T234      1      45      27  29.8     3       4 06/2… KIM        51.8    6.11
 5 T235      2      10      35  34.3     1       2 02/1… KIM       246.   128.  
 6 T235      2     327      27  26       1       5 02/2… KIM       246.   128.  
 7 T235      2     425      27  30.7     3       2 06/2… KIM       246.   128.  
 8 T235      2     223      35  33.9     3       4 06/3… KIM       246.   128.  
 9 T236      3     187      35  34.4     1       2 01/2… RAS       178      6.96
10 T236      3     126      27  25.9     1       4 01/3… RAS       178      6.96
# … with 28 more rows, and abbreviated variable names ¹​motif_count,
#   ²​temp_target, ³​trial_round, ⁴​y0_simple.est
# ℹ Use `print(n = ...)` to see more rows
…
