…
> curr_row
integer(0)
> curr_row <- which(fit_tbl$sampling_dist == sampling &
                            fit_tbl$x0_flag == x0_flag &
                            fit_tbl$y0_flag == y0_flag) &
                            fit_tbl$disp_prior == disp_prior)
+ + + > 
> curr_row <- which(fit_tbl$sampling_dist == sampling &
                            fit_tbl$x0_flag == x0_flag &
                            fit_tbl$y0_flag == y0_flag)
+ + > 
> curr_row
integer(0)
> fit_tbl
# A tibble: 90 × 12
   model sampl…¹ x0_flag y0_flag disp_…² desc  y0_gr…³ x0_gr…⁴ fit   llik  r_eff
   <chr> <chr>   <chr>   <chr>     <dbl> <chr> <list>  <list>  <lis> <lis> <lis>
 1 piec… nbinom… groups… groups…     0.5 NA_c… <lgl>   <lgl>   <lgl> <lgl> <lgl>
 2 piec… nbinom… groups… groups…     2   NA_c… <lgl>   <lgl>   <lgl> <lgl> <lgl>
 3 piec… nbinom… groups… groups…     4   NA_c… <lgl>   <lgl>   <lgl> <lgl> <lgl>
 4 piec… nbinom… groups… groups…    16   NA_c… <lgl>   <lgl>   <lgl> <lgl> <lgl>
 5 piec… nbinom… groups… groups…    64   NA_c… <lgl>   <lgl>   <lgl> <lgl> <lgl>
 6 piec… nbinom… groups… groups…   128   NA_c… <lgl>   <lgl>   <lgl> <lgl> <lgl>
 7 piec… nbinom… groups… indivi…     0.5 NA_c… <lgl>   <lgl>   <lgl> <lgl> <lgl>
 8 piec… nbinom… groups… indivi…     2   NA_c… <lgl>   <lgl>   <lgl> <lgl> <lgl>
 9 piec… nbinom… groups… indivi…     4   NA_c… <lgl>   <lgl>   <lgl> <lgl> <lgl>
10 piec… nbinom… groups… indivi…    16   NA_c… <lgl>   <lgl>   <lgl> <lgl> <lgl>
# … with 80 more rows, 1 more variable: loo <list>, and abbreviated variable
#   names ¹​sampling_dist, ²​disp_prior, ³​y0_group_list, ⁴​x0_group_list
# ℹ Use `print(n = ...)` to see more rows, and `colnames()` to see all variable names
…
