…
> rstan_options(auto_write = TRUE)
> library(brms)
Error in library(brms) : there is no package called ‘brms’
> . + > input_dir <- file.path("input")
> output_dir <- file.path("output")
> load(file.path(input_dir, "data.processing_2022-12-15.Rda"),
+      verbose = TRUE)
Loading objects:
  motif_data
  motif_data_40C
  motif_stats
  motif_stats_40C
  bird_bill_data
> motif_data
# A tibble: 146 × 28
   male  round trial_round motif…¹ motif…² temp_…³ humid…⁴ chamber date  counter
   <fct> <dbl>       <dbl>   <int>   <dbl>   <dbl>   <dbl> <fct>   <chr> <chr>  
 1 T229      1           1       0 0          45.8      NA 6       02/1… KIM    
 2 T229      1           2      24 0.0131     42.3      NA 6       02/1… KIM    
 3 T229      1           3     114 0.0622     40.7      NA 6       02/1… KIM    
 4 T229      1           4     198 0.108      26.2      NA 6       02/1… KIM    
 5 T229      1           5     315 0.172      34.9      NA 6       02/2… KIM    
 6 T231      1           1      57 0.0431     42.8      NA 2       02/1… RAS    
 7 T231      1           2       7 0.00529    45.0      NA 2       02/1… RAS    
 8 T231      1           3      86 0.0650     41.1      NA 2       02/1… KIM    
 9 T231      1           4      24 0.0181     27.2      NA 2       02/1… RAS    
10 T231      1           5     215 0.162      36.5      NA 2       02/2… RAS    
# … with 136 more rows, 18 more variables: test_order <int>, temp_target <dbl>,
#   temp_median <dbl>, humdity_mean <dbl>, motif_rate <dbl>, mass <dbl>,
#   n_obs_completed <lgl>, motif_count_plus_1 <int>,
#   log_motif_count_plus_1 <dbl>, temp <dbl>, n_obs_round <int>, n_obs <int>,
#   trial <int>, motif_prop_round <dbl>, weights <dbl>, svp <dbl>, vpd <dbl>,
#   vpd_offset <dbl>, and abbreviated variable names ¹​motif_count, ²​motif_prop,
#   ³​temp_mean, ⁴​humidity_mean
# ℹ Use `print(n = ...)` to see more rows, and `colnames()` to see all variable names
…
