…
    ngrps

> library(latex2exp)
> + + + + + + + > input_dir <- file.path("input")
> output_dir <- file.path("output")
> load(file.path(input_dir, "data.processing_2022-12-15.Rda"),
+      verbose = TRUE)
Loading objects:
  motif_data
  motif_data_40C
  motif_stats
  motif_stats_40C
  bird_bill_data
> motif_data
# A tibble: 146 × 28
   male  round trial_round motif…¹ motif…² temp_…³ humid…⁴ chamber date  counter
   <fct> <dbl>       <dbl>   <int>   <dbl>   <dbl>   <dbl> <fct>   <chr> <chr>  
 1 T229      1           1       0 0          45.8      NA 6       02/1… KIM    
 2 T229      1           2      24 0.0131     42.3      NA 6       02/1… KIM    
 3 T229      1           3     114 0.0622     40.7      NA 6       02/1… KIM    
 4 T229      1           4     198 0.108      26.2      NA 6       02/1… KIM    
 5 T229      1           5     315 0.172      34.9      NA 6       02/2… KIM    
 6 T231      1           1      57 0.0431     42.8      NA 2       02/1… RAS    
 7 T231      1           2       7 0.00529    45.0      NA 2       02/1… RAS    
 8 T231      1           3      86 0.0650     41.1      NA 2       02/1… KIM    
 9 T231      1           4      24 0.0181     27.2      NA 2       02/1… RAS    
10 T231      1           5     215 0.162      36.5      NA 2       02/2… RAS    
# … with 136 more rows, 18 more variables: test_order <int>, temp_target <dbl>,
#   temp_median <dbl>, humdity_mean <dbl>, motif_rate <dbl>, mass <dbl>,
#   n_obs_completed <lgl>, motif_count_plus_1 <int>,
#   log_motif_count_plus_1 <dbl>, temp <dbl>, n_obs_round <int>, n_obs <int>,
#   trial <int>, motif_prop_round <dbl>, weights <dbl>, svp <dbl>, vpd <dbl>,
#   vpd_offset <dbl>, and abbreviated variable names ¹​motif_count, ²​motif_prop,
#   ³​temp_mean, ⁴​humidity_mean
# ℹ Use `print(n = ...)` to see more rows, and `colnames()` to see all variable names
…
> parms_sim
# A tibble: 82,560 × 16
# Rowwise: 
   samplin…¹ index    x0 x0_gr…² x0_bar x0_sd    y0 y0_gr…³ y0_bar y0_sd temp_…⁴
   <chr>     <fct> <dbl> <fct>    <dbl> <dbl> <dbl> <fct>    <dbl> <dbl>   <dbl>
 1 qpoisson  1        39 1           39     1  113. 1         113.  21.5      30
 2 qpoisson  1        39 1           39     1  113. 1         113.  21.5      30
 3 qpoisson  1        39 1           39     1  113. 1         113.  21.5      30
 4 qpoisson  1        39 1           39     1  113. 1         113.  21.5      38
 5 qpoisson  1        39 1           39     1  113. 1         113.  21.5      38
 6 qpoisson  1        39 1           39     1  113. 1         113.  21.5      38
 7 qpoisson  1        39 1           39     1  113. 1         113.  21.5      40
 8 qpoisson  1        39 1           39     1  113. 1         113.  21.5      40
 9 qpoisson  1        39 1           39     1  113. 1         113.  21.5      40
10 qpoisson  1        39 1           39     1  113. 1         113.  21.5      42
# … with 82,550 more rows, 5 more variables: n_reps <dbl>, rep <int>,
#   x_flag <chr>, y_flag <chr>, temp_mean <dbl>, and abbreviated variable names
#   ¹​sampling_dist, ²​x0_group, ³​y0_group, ⁴​temp_target
# ℹ Use `print(n = ...)` to see more rows, and `colnames()` to see all variable names
…
   <fct> <chr>   
 1 1     groups_2
 2 2     groups_2
 3 3     groups_2
 4 4     groups_2
 5 5     groups_2
 6 6     groups_2
 7 7     groups_2
 8 8     groups_2
 9 9     groups_2
10 10    groups_2
11 11    groups_2
12 12    groups_2
> unique(data_base[, c("male", "x")])
# A tibble: 1,899 × 2
   male      x
   <fct> <dbl>
 1 1      28.8
 2 1      29.3
 3 1      29.1
 4 1      30.4
 5 1      29.7
 6 1      29.9
 7 1      27.8
 8 1      28.9
 9 1      30.0
10 1      31.6
# … with 1,889 more rows
# ℹ Use `print(n = ...)` to see more rows
…
+                     desc = "NA_character",
+                     y0_group_list = tbl_tmp, #list(NA),
+                     x0_group_list = list(NA),
+                     fit = list(NA),
+                     llik = list(NA),
+                     r_eff = list(NA),
+                     loo = list(NA)
+                     )
> fit_tbl[ , c("x0_group_list", "male")]
Error in `fit_tbl[, c("x0_group_list", "male")]`:
! Can't subset columns that don't exist.
✖ Column `male` doesn't exist.
Run `rlang::last_error()` to see where the error occurred.
> fit_tbl[ , c("x0_group_list", "fit")]
# A tibble: 192 × 2
   x0_group_list fit      
   <list>        <list>   
 1 <lgl [1]>     <lgl [1]>
 2 <lgl [1]>     <lgl [1]>
 3 <lgl [1]>     <lgl [1]>
 4 <lgl [1]>     <lgl [1]>
 5 <lgl [1]>     <lgl [1]>
 6 <lgl [1]>     <lgl [1]>
 7 <lgl [1]>     <lgl [1]>
 8 <lgl [1]>     <lgl [1]>
 9 <lgl [1]>     <lgl [1]>
10 <lgl [1]>     <lgl [1]>
# … with 182 more rows
# ℹ Use `print(n = ...)` to see more rows
> fit_tbl[ , c("x0_group_list", "y0_group_list", "fit")]
# A tibble: 192 × 3
   x0_group_list y0_group_list$male $y0_group fit      
   <list>        <fct>              <fct>     <list>   
 1 <lgl [1]>     1                  1         <lgl [1]>
 2 <lgl [1]>     2                  1         <lgl [1]>
 3 <lgl [1]>     3                  2         <lgl [1]>
 4 <lgl [1]>     4                  2         <lgl [1]>
 5 <lgl [1]>     5                  1         <lgl [1]>
 6 <lgl [1]>     6                  1         <lgl [1]>
 7 <lgl [1]>     7                  2         <lgl [1]>
 8 <lgl [1]>     8                  1         <lgl [1]>
 9 <lgl [1]>     9                  1         <lgl [1]>
10 <lgl [1]>     10                 2         <lgl [1]>
# … with 182 more rows
# ℹ Use `print(n = ...)` to see more rows
…
